…
    ## Rows: 1458 Columns: 123
    ## ── Column specification ────────────────────────────────────────────────────────
    ## Delimiter: ","
    ## chr   (3): ISO_code, countries, region
    ## dbl (120): year, pf_rol_procedural, pf_rol_civil, pf_rol_criminal, pf_rol, p...
    ## 
    ## ℹ Use `spec()` to retrieve the full column specification for this data.
    ## ℹ Specify the column types or set `show_col_types = FALSE` to quiet this message.

``` r
hfi
```

    ## # A tibble: 1,458 × 123
    ##     year ISO_code countries  region               pf_rol_procedural pf_rol_civil
    ##    <dbl> <chr>    <chr>      <chr>                            <dbl>        <dbl>
    ##  1  2016 ALB      Albania    Eastern Europe                    6.66         4.55
    ##  2  2016 DZA      Algeria    Middle East & North…             NA           NA   
    ##  3  2016 AGO      Angola     Sub-Saharan Africa               NA           NA   
    ##  4  2016 ARG      Argentina  Latin America & the…              7.10         5.79
    ##  5  2016 ARM      Armenia    Caucasus & Central …             NA           NA   
    ##  6  2016 AUS      Australia  Oceania                           8.44         7.53
    ##  7  2016 AUT      Austria    Western Europe                    8.97         7.87
    ##  8  2016 AZE      Azerbaijan Caucasus & Central …             NA           NA   
    ##  9  2016 BHS      Bahamas    Latin America & the…              6.93         6.01
    ## 10  2016 BHR      Bahrain    Middle East & North…             NA           NA   
    ## # ℹ 1,448 more rows
    ## # ℹ 117 more variables: pf_rol_criminal <dbl>, pf_rol <dbl>,
    ## #   pf_ss_homicide <dbl>, pf_ss_disappearances_disap <dbl>,
    ## #   pf_ss_disappearances_violent <dbl>, pf_ss_disappearances_organized <dbl>,
    ## #   pf_ss_disappearances_fatalities <dbl>, pf_ss_disappearances_injuries <dbl>,
    ## #   pf_ss_disappearances <dbl>, pf_ss_women_fgm <dbl>,
    ## #   pf_ss_women_missing <dbl>, pf_ss_women_inheritance_widows <dbl>, …
…
- Filter the data `hfi` data frame for year 2016, and
- Assigns the result to a data frame named `hfi_2016`.

``` r
library(dplyr)

# Filter the data for year 2016 and assign it to hfi_2016
hfi_2016 <- hfi |>
  filter(year == 2016)
hfi_2016
```

    ## # A tibble: 162 × 123
    ##     year ISO_code countries  region               pf_rol_procedural pf_rol_civil
    ##    <dbl> <chr>    <chr>      <chr>                            <dbl>        <dbl>
    ##  1  2016 ALB      Albania    Eastern Europe                    6.66         4.55
    ##  2  2016 DZA      Algeria    Middle East & North…             NA           NA   
    ##  3  2016 AGO      Angola     Sub-Saharan Africa               NA           NA   
    ##  4  2016 ARG      Argentina  Latin America & the…              7.10         5.79
    ##  5  2016 ARM      Armenia    Caucasus & Central …             NA           NA   
    ##  6  2016 AUS      Australia  Oceania                           8.44         7.53
    ##  7  2016 AUT      Austria    Western Europe                    8.97         7.87
    ##  8  2016 AZE      Azerbaijan Caucasus & Central …             NA           NA   
    ##  9  2016 BHS      Bahamas    Latin America & the…              6.93         6.01
    ## 10  2016 BHR      Bahrain    Middle East & North…             NA           NA   
    ## # ℹ 152 more rows
    ## # ℹ 117 more variables: pf_rol_criminal <dbl>, pf_rol <dbl>,
    ## #   pf_ss_homicide <dbl>, pf_ss_disappearances_disap <dbl>,
    ## #   pf_ss_disappearances_violent <dbl>, pf_ss_disappearances_organized <dbl>,
    ## #   pf_ss_disappearances_fatalities <dbl>, pf_ss_disappearances_injuries <dbl>,
    ## #   pf_ss_disappearances <dbl>, pf_ss_women_fgm <dbl>,
    ## #   pf_ss_women_missing <dbl>, pf_ss_women_inheritance_widows <dbl>, …
…
10. Interpret each of the estimated parameters from (10) in the context
    of this research question. That is, what do these values represent?

Now we will assess using the testing data set.

- In the code chunk below titled `train-fit-lm`, replace “verbatim” with
  “r” just before the code chunk title and update `data_test` to
  whatever R object you assigned your testing data to above.

``` r
test_aug <- augment(slr_train, new_data = hfi_test)
test_aug
```

    ## # A tibble: 33 × 125
    ##    .pred  .resid  year ISO_code countries  region pf_rol_procedural pf_rol_civil
    ##    <dbl>   <dbl> <dbl> <chr>    <chr>      <chr>              <dbl>        <dbl>
    ##  1  7.30  0.801   2016 ARG      Argentina  Latin…              7.10         5.79
    ##  2  6.59  0.324   2016 ARM      Armenia    Cauca…             NA           NA   
    ##  3  4.32  1.36    2016 AZE      Azerbaijan Cauca…             NA           NA   
    ##  4  8.29 -0.838   2016 BHS      Bahamas    Latin…              6.93         6.01
    ##  5  6.02 -0.718   2016 BGD      Bangladesh South…              2.33         3.71
    ##  6  8.43 -0.728   2016 BRD      Barbados   Latin…              7.67         6.52
    ##  7  5.88 -0.413   2016 CAF      Central A… Sub-S…             NA           NA   
    ##  8  5.31  1.47    2016 COG      Congo, Re… Sub-S…             NA           NA   
    ##  9  7.16 -0.0940  2016 CIV      Cote d'Iv… Sub-S…              2.99         5.19
    ## 10  9.29 -0.273   2016 EST      Estonia    Easte…              8.77         7.85
    ## # ℹ 23 more rows
    ## # ℹ 117 more variables: pf_rol_criminal <dbl>, pf_rol <dbl>,
    ## #   pf_ss_homicide <dbl>, pf_ss_disappearances_disap <dbl>,
    ## #   pf_ss_disappearances_violent <dbl>, pf_ss_disappearances_organized <dbl>,
    ## #   pf_ss_disappearances_fatalities <dbl>, pf_ss_disappearances_injuries <dbl>,
    ## #   pf_ss_disappearances <dbl>, pf_ss_women_fgm <dbl>,
    ## #   pf_ss_women_missing <dbl>, pf_ss_women_inheritance_widows <dbl>, …
…
In order to do these checks we need access to the fitted (predicted)
values and the residuals. We can use `broom::augment` to calculate
these.

- In the code chunk below titled `augment`, replace “verbatim” with “r”
  just before the code chunk title and update `data_train` to whatever R
  object you assigned your training data to above.

``` r
train_aug <- augment(slr_train, new_data = hfi_test)
train_aug
```

    ## # A tibble: 33 × 125
    ##    .pred  .resid  year ISO_code countries  region pf_rol_procedural pf_rol_civil
    ##    <dbl>   <dbl> <dbl> <chr>    <chr>      <chr>              <dbl>        <dbl>
    ##  1  7.30  0.801   2016 ARG      Argentina  Latin…              7.10         5.79
    ##  2  6.59  0.324   2016 ARM      Armenia    Cauca…             NA           NA   
    ##  3  4.32  1.36    2016 AZE      Azerbaijan Cauca…             NA           NA   
    ##  4  8.29 -0.838   2016 BHS      Bahamas    Latin…              6.93         6.01
    ##  5  6.02 -0.718   2016 BGD      Bangladesh South…              2.33         3.71
    ##  6  8.43 -0.728   2016 BRD      Barbados   Latin…              7.67         6.52
    ##  7  5.88 -0.413   2016 CAF      Central A… Sub-S…             NA           NA   
    ##  8  5.31  1.47    2016 COG      Congo, Re… Sub-S…             NA           NA   
    ##  9  7.16 -0.0940  2016 CIV      Cote d'Iv… Sub-S…              2.99         5.19
    ## 10  9.29 -0.273   2016 EST      Estonia    Easte…              8.77         7.85
    ## # ℹ 23 more rows
    ## # ℹ 117 more variables: pf_rol_criminal <dbl>, pf_rol <dbl>,
    ## #   pf_ss_homicide <dbl>, pf_ss_disappearances_disap <dbl>,
    ## #   pf_ss_disappearances_violent <dbl>, pf_ss_disappearances_organized <dbl>,
    ## #   pf_ss_disappearances_fatalities <dbl>, pf_ss_disappearances_injuries <dbl>,
    ## #   pf_ss_disappearances <dbl>, pf_ss_women_fgm <dbl>,
    ## #   pf_ss_women_missing <dbl>, pf_ss_women_inheritance_widows <dbl>, …
…
